{"data":[{"id":"f1285733-a41f-44a4-b758-71457e08211c","slug":"avatara-sara-gora-avatara","title":"Аватара сара гора аватара","firstLine":"аватара-сара гора-аватара","author":"Лочана дас Тхакур","theme":"Гаура-таттва","themes":["Гаура-таттва"],"counters":{"recordings":2,"comments":0,"scores":1,"slides":5},"matchType":null,"snippet":null},{"id":"775362d0-8c07-4e69-aee3-d458ff3226a4","slug":"amara-jivana","title":"Амара дживана","firstLine":"амара дживана сада папе рата","author":"Бхактивинода Тхакур","theme":"Шаранагати","themes":["Шаранагати"],"counters":{"recordings":7,"comments":3,"scores":1,"slides":6},"matchType":null,"snippet":null},{"id":"c947af01-6384-4230-aa0e-3b4e61e0a278","slug":"bhajahu-re-mana","title":"Бхаджаху ре мана","firstLine":"бхаджаху ре мана шри-нанда-нандана","author":"Говинда дас Кавираджа","theme":"Кришна-таттва","themes":["Кришна-таттва"],"counters":{"recordings":13,"comments":10,"scores":1,"slides":4},"matchType":null,"snippet":null},{"id":"c5d9c24f-af6b-4771-af18-40269cb52d41","slug":"bhoga-arati","title":"Бхога-арати","firstLine":"бхаджа бхаката-ватсала шри-гаурахари","author":"Бхактивинода Тхакур","theme":"Кришна-таттва","themes":["Кришна-таттва"],"counters":{"recordings":7,"comments":0,"scores":1,"slides":17},"matchType":null,"snippet":null},{"id":"2437123d-dea1-494a-9a60-39dc61a52fff","slug":"vande-krishna-nanda-kumara","title":"Ванде кришна нанда кумара","firstLine":"ванде кришна нанда-кумара нанда-кумара мадана-гопала","author":"Автор неизвестен","theme":"Кришна-таттва","themes":["Кришна-таттва"],"counters":{"recordings":1,"comments":0,"scores":1,"slides":3},"matchType":null,"snippet":null},{"id":"b5fba36d-2e72-4a55-8e19-82d5554cd00f","slug":"vibhavari-sesa","title":"Вибхавари-шеша","firstLine":"вибхавари шеша, алока-правеша","author":"Бхактивинода Тхакур","theme":"Кришна-таттва","themes":["Кришна-таттва"],"counters":{"recordings":6,"comments":1,"scores":1,"slides":8},"matchType":null,"snippet":null},{"id":"cae5a021-ce5c-44a2-8e1e-7a378ff2c42d","slug":"vrindavana-ramia-sthana","title":"Вриндавана рамйа стхана","firstLine":"радха-кришна прана","author":"Нароттам дас Тхакур","theme":"Дхама-таттва","themes":["Дхама-таттва","Кришна-таттва","Радха-таттва"],"counters":{"recordings":1,"comments":1,"scores":1,"slides":3},"matchType":null,"snippet":null},{"id":"2a26d2da-120c-4e16-94c5-83df86a9888f","slug":"vrindadevi-ashtaka","title":"Вриндадеви-аштака","firstLine":"гангейа-чампейа-тадид-вининди","author":"Вишванатха Чакраварти Тхакур","theme":"Дхама-таттва","themes":["Дхама-таттва","Туласи-таттва"],"counters":{"recordings":4,"comments":2,"scores":1,"slides":9},"matchType":null,"snippet":null},{"id":"95534b93-e326-498a-806e-2f0ac57dfcc9","slug":"gaura-arati","title":"Гаура-арати","firstLine":"киба джайа джайа горачадера аратико шобха","author":"Бхактивинода Тхакур","theme":"Гаура-таттва","themes":["Гаура-таттва"],"counters":{"recordings":4,"comments":0,"scores":1,"slides":7},"matchType":null,"snippet":null},{"id":"69a35773-89cd-4137-8a42-b0e5f25063ed","slug":"gauranga-bolite-ha-be","title":"Гауранга болите ха'бе","firstLine":"гауранга болите ха’бе пулака-шарира","author":"Нароттам дас Тхакур","theme":"Гаура-таттва","themes":["Гаура-таттва"],"counters":{"recordings":4,"comments":4,"scores":1,"slides":5},"matchType":null,"snippet":null},{"id":"fb93545f-0936-4c93-ae3a-e1a31becebd0","slug":"gauranga-tumi-more","title":"Гауранга туми море","firstLine":"гауранга туми море дойа на чхадихо","author":"Васудева Гхош","theme":"Гаура-таттва","themes":["Гаура-таттва"],"counters":{"recordings":2,"comments":0,"scores":1,"slides":4},"matchType":null,"snippet":null},{"id":"0ad3ae20-9820-4d21-ba79-14a140e79767","slug":"govardhana-arati","title":"Говардхана-арати","firstLine":"джайа гири-говардханер арати нехари","author":"Автор неизвестен","theme":"Дхама-таттва","themes":["Дхама-таттва","Говардхана-таттва"],"counters":{"recordings":1,"comments":0,"scores":0,"slides":5},"matchType":null,"snippet":null},{"id":"141bbd2f-c340-4256-9c41-e01585221ff0","slug":"govardhana-vasa","title":"Говардхана-васа-прартхана-дашака","firstLine":"ниджа-пати-бхуджа-дандач-чхатра-бхавам прападйа ","author":"Рагхунатха дас Госвами","theme":"Дхама-таттва","themes":["Дхама-таттва","Говардхана-таттва"],"counters":{"recordings":3,"comments":3,"scores":1,"slides":11},"matchType":null,"snippet":null},{"id":"2c37ac08-a9f6-4713-8da2-c48264c042bb","slug":"govindam-adi-purusam","title":"Говиндам ади-пурушам","firstLine":"венум кванантам аравинда-далайатакшам","author":"Вьясадева","theme":"Кришна-таттва","themes":["Кришна-таттва"],"counters":{"recordings":3,"comments":0,"scores":1,"slides":2},"matchType":null,"snippet":null},{"id":"bac8c538-41d7-4a62-9895-499f79dbb643","slug":"gopi-gita","title":"Гопи-гита","firstLine":"джайати те ’дхикам джанмана враджах","author":"Вьясадева","theme":"Кришна-таттва","themes":["Кришна-таттва"],"counters":{"recordings":2,"comments":5,"scores":1,"slides":19},"matchType":null,"snippet":null},{"id":"516514ba-79e4-4b11-8207-303d8afc1e18","slug":"gopinatha-1","title":"Гопинатха. Песня 1","firstLine":"гопинатх,мама ниведана шуно","author":"Бхактивинода Тхакур","theme":"Шаранагати","themes":["Шаранагати","Кришна-таттва"],"counters":{"recordings":3,"comments":0,"scores":1,"slides":8},"matchType":null,"snippet":null},{"id":"745efe88-0b4b-44a5-98b2-890cb144dee1","slug":"gurudev","title":"Гурудев","firstLine":"гурудев крипа бинду дийа","author":"Бхактивинода Тхакур","theme":"Гуру-вайшнава-таттва","themes":["Гуру-вайшнава-таттва"],"counters":{"recordings":4,"comments":1,"scores":1,"slides":4},"matchType":null,"snippet":null},{"id":"3128be2e-1a5d-4efb-a8fc-eff9b91dbe6f","slug":"damodarashtaka","title":"Дамодараштака","firstLine":"намам ишварам сач-чид-ананда-рупам ","author":"Сатьяврата Муни","theme":"Кришна-таттва","themes":["Кришна-таттва"],"counters":{"recordings":5,"comments":8,"scores":4,"slides":8},"matchType":null,"snippet":null},{"id":"a8a1fc3e-29a7-4f47-8c6d-dac4fd7d18c2","slug":"dasavatara-stotra","title":"Дашаватара-стотра","firstLine":"пралайа-пайодхи-джале дхритаван аси ведам ","author":"Джаядева Госвами","theme":"Кришна-таттва","themes":["Кришна-таттва"],"counters":{"recordings":4,"comments":0,"scores":1,"slides":12},"matchType":null,"snippet":null},{"id":"fb599340-e347-4bf0-8ce5-4b2077086aab","slug":"dven-imen-gospoda-nitianandy","title":"Двенадцать имен Господа Нитьянанды","firstLine":"нитйанандо 'вадхутендур ","author":"Сарвабхаума Бхаттачарья","theme":"Нитьянанда-таттва","themes":["Нитьянанда-таттва"],"counters":{"recordings":1,"comments":0,"scores":0,"slides":4},"matchType":null,"snippet":null}],"pagination":{"total":74,"page":1,"limit":20,"totalPages":4}}